// Jest Snapshot v1, https://goo.gl/fbAQLP

exports[`Input should render with default props 1`] = `
<Styled(div)>
  <div>
    <Styled(input)
      id={null}
      name="name"
      onChange={[MockFunction]}
      type="text"
      value={null}
    />
  </div>
</Styled(div)>
`;

exports[`Input should render with specified props 1`] = `
<Styled(div)>
  <Styled(label)
    htmlFor={null}
  >
    Label
  </Styled(label)>
  <div>
    <Styled(input)
      id={null}
      name="name"
      onChange={[MockFunction]}
      type="text"
      value={null}
    />
  </div>
</Styled(div)>
`;
